{
    "name": "conf_qgis_fr",
    "description": "Profil de démonstration de la gestion des profils QGIS par Oslandia (atelier des journées QGIS FR 2022).",
    "author": "Benoît Ducarouge et Julien Moura",
    "email": "qgis@oslandia.com",
    "qgisMinimumVersion": "3.16",
    "qgisMaximumVersion": "3.24",
    "version": "1.0.0",
    "plugins": [
        {
            "name": "french_locator_filter",
            "version": "1.0.1",
            "url": "https://plugins.qgis.org/plugins/french_locator_filter/version/1.0.1/download/",
            "type": "remote"
        },
        {
            "name": "pg_metadata",
            "version": "1.1.0",
            "url": "https://plugins.qgis.org/plugins/pg_metadata/version/1.1.0/download/",
            "type": "remote"
        },
        {
            "name": "Layers menu from project",
            "version": "v2.0.2",
            "url": "https://plugins.qgis.org/plugins/menu_from_project/version/v2.0.2/download/",
            "type": "remote"
        }
    ]
}
